FPGA-DAW/FPGA-DAW.srcs/sources_1/new/verilog_tb.vcd
$date
	Sat May 20 16:22:26 2023
$end
$version
	Icarus Verilog
$end
$timescale
	1ps
$end
$scope module SPI_Slave $end
$var wire 1 ! i_Clk $end
$var wire 1 " i_Rst_L $end
$var wire 1 # i_SPI_CS_n $end
$var wire 1 $ i_SPI_Clk $end
$var wire 1 % i_SPI_MOSI $end
$var wire 8 & i_TX_Byte [7:0] $end
$var wire 1 ' i_TX_DV $end
$var wire 1 ( w_CPHA $end
$var wire 1 ) w_CPOL $end
$var wire 1 * w_SPI_Clk $end
$var wire 1 + w_SPI_MISO_Mux $end
$var wire 1 , o_SPI_MISO $end
$var parameter 32 - SPI_MODE $end
$var reg 8 . o_RX_Byte [7:0] $end
$var reg 1 / o_RX_DV $end
$var reg 1 0 r2_RX_Done $end
$var reg 1 1 r3_RX_Done $end
$var reg 1 2 r_Preload_MISO $end
$var reg 3 3 r_RX_Bit_Count [2:0] $end
$var reg 8 4 r_RX_Byte [7:0] $end
$var reg 1 5 r_RX_Done $end
$var reg 1 6 r_SPI_MISO_Bit $end
$var reg 3 7 r_TX_Bit_Count [2:0] $end
$var reg 8 8 r_TX_Byte [7:0] $end
$var reg 8 9 r_Temp_RX_Byte [7:0] $end
$upscope $end
$scope module top $end
$var wire 3 : rgb [2:0] $end
$var wire 8 ; spi_data [7:0] $end
$var wire 1 < sysclk $end
$var wire 1 = valid $end
$var wire 4 > led [3:0] $end
$var wire 1 ? analog_out $end
$var reg 8 @ spi_byte [7:0] $end
$scope module dac $end
$var wire 1 < clk $end
$var wire 8 A val [7:0] $end
$var wire 1 ? analog $end
$var reg 8 B ctr [7:0] $end
$upscope $end
$upscope $end
$scope module verilog_tb $end
$var reg 1 C clk $end
$var reg 1 D reset $end
$var reg 8 E spi_data [7:0] $end
$var reg 1 F valid $end
$scope module uut $end
$var wire 1 C clk $end
$var wire 1 D rst $end
$var wire 8 G spi_data [7:0] $end
$var wire 1 F valid $end
$var reg 16 H ctr0 [15:0] $end
$var reg 8 I dac_state [7:0] $end
$var reg 3 J state [2:0] $end
$upscope $end
$upscope $end
$enddefinitions $end
$comment Show the parameter values. $end
$dumpall
b0 -
$end
#0
$dumpvars
b0 J
bx I
bx H
b0 G
0F
b0 E
0D
0C
bx B
b0 A
b0 @
x?
b0 >
z=
z<
bz ;
b0 :
bx 9
bx 8
bx 7
x6
x5
bx 4
bx 3
x2
x1
x0
x/
bx .
x,
x+
z*
0)
0(
z'
bz &
z%
z$
z#
z"
z!
$end
#1000
1C
#2000
0C
#3000
1C
#4000
0C
#5000
1C
#6000
0C
#7000
1C
#8000
0C
#9000
1C
#10000
0C
1D
#11000
1C
#12000
0C
#13000
1C
#14000
0C
#15000
1C
#16000
0C
0D
#17000
1C
#18000
0C
#19000
1C
#20000
0C
#21000
1C
#22000
0C
#23000
1C
#24000
0C
#25000
1C
#26000
0C
b10001000 E
b10001000 G
#27000
1C
#28000
0C
1F
#29000
b0 H
b1 J
1C
#30000
0C
b110000 E
b110000 G
0F
#31000
1C
#32000
0C
1F
#33000
b110000 I
b1 H
1C
#34000
0C
b10001000 E
b10001000 G
0F
#35000
1C
#36000
0C
1F
#37000
b11 J
b10001000 I
b0 H
1C
#38000
0C
b110000 E
b110000 G
0F
#39000
1C
#40000
0C
1F
#41000
b110000 I
b1 H
1C
#42000
0C
0F
#43000
1C
#44000
0C
1F
#45000
b10 H
1C
#46000
0C
0F
#47000
1C
#48000
0C
1F
#49000
b11 H
1C
#50000
0C
0F
#51000
1C
#52000
0C
1F
#53000
b100 H
1C
#54000
0C
0F
#55000
1C
#56000
0C
1F
#57000
b101 H
1C
#58000
0C
0F
#59000
1C
#60000
0C
1F
#61000
b110 H
1C
#62000
0C
0F
#63000
1C
#64000
0C
1F
#65000
b111 H
1C
#66000
0C
0F
#67000
1C
#68000
0C
1F
#69000
b1000 H
1C
#70000
0C
0F
#71000
1C
#72000
0C
1F
#73000
b1001 H
1C
#74000
0C
0F
#75000
1C
#76000
0C
1F
#77000
b1010 H
1C
#78000
0C
0F
#79000
1C
#80000
0C
1F
#81000
b1011 H
1C
#82000
0C
0F
