sd-controller/verilog_tb.vcd
$date
	Sat Jun 10 14:47:07 2023
$end
$version
	Icarus Verilog
$end
$timescale
	1s
$end
$scope module verilog_tb $end
$var wire 1 ! data_int_rst_sd_clk $end
$var wire 32 " data_out_tx_fifo [31:0] $end
$var wire 1 # data_start_rx $end
$var wire 1 $ data_start_tx $end
$var wire 1 % rx_fifo_full $end
$var wire 1 & sd_cmd_dat_i $end
$var wire 1 ' sdcmd $end
$var wire 1 ( tx_fifo_empty $end
$var wire 1 ) tx_fifo_full $end
$var wire 1 * we_fifo $end
$var wire 1 + start_tx_fifo $end
$var wire 1 , start_rx_fifo $end
$var wire 1 - sd_data_busy $end
$var wire 1 . sd_dat_out_o $end
$var wire 1 / sd_dat_oe_o $end
$var wire 1 0 sd_cmd_out_o $end
$var wire 1 1 sd_cmd_oe_o $end
$var wire 1 2 response_3_reg_sd_clk $end
$var wire 1 3 response_2_reg_sd_clk $end
$var wire 1 4 response_1_reg_sd_clk $end
$var wire 1 5 response_0_reg_sd_clk $end
$var wire 1 6 rd_fifo $end
$var wire 1 7 go_idle $end
$var wire 1 8 data_int_status_reg_sd_clk $end
$var wire 32 9 data_in_rx_fifo [31:0] $end
$var wire 1 : data_crc_ok $end
$var wire 1 ; data_busy $end
$var wire 1 < d_write $end
$var wire 1 = d_read $end
$var wire 1 > cmd_start_tx $end
$var wire 2 ? cmd_setting [1:0] $end
$var wire 120 @ cmd_response [119:0] $end
$var wire 1 A cmd_int_status_reg_sd_clk $end
$var wire 1 B cmd_index_ok $end
$var wire 1 C cmd_finish $end
$var wire 1 D cmd_crc_ok $end
$var wire 40 E cmd [39:0] $end
$var reg 32 F argument_reg_sd_clk [31:0] $end
$var reg 1 G cmd_int_rst_sd_clk $end
$var reg 1 H cmd_start_sd_clk $end
$var reg 24 I cmd_timeout_reg_sd_clk [23:0] $end
$var reg 14 J command_reg_sd_clk [13:0] $end
$var reg 1 K reset $end
$var reg 1 L sd_clk_o $end
$scope module cmd_serial_host0 $end
$var wire 1 & cmd_dat_i $end
$var wire 1 K rst $end
$var wire 1 L sd_clk $end
$var wire 1 > start_i $end
$var wire 2 M setting_i [1:0] $end
$var wire 7 N crc_val [6:0] $end
$var wire 40 O cmd_i [39:0] $end
$var parameter 32 P BITS_TO_SEND $end
$var parameter 32 Q CMD_SIZE $end
$var parameter 7 R FINISH_WO $end
$var parameter 7 S FINISH_WR $end
$var parameter 7 T IDLE $end
$var parameter 7 U INIT $end
$var parameter 32 V INIT_DELAY $end
$var parameter 7 W READ $end
$var parameter 7 X READ_WAIT $end
$var parameter 32 Y RESP_SIZE $end
$var parameter 7 Z SETUP_CRC $end
$var parameter 32 [ STATE_SIZE $end
$var parameter 7 \ WRITE $end
$var reg 40 ] cmd_buff [39:0] $end
$var reg 1 ^ cmd_dat_reg $end
$var reg 1 1 cmd_oe_o $end
$var reg 1 0 cmd_out_o $end
$var reg 1 _ crc_bit $end
$var reg 1 ` crc_enable $end
$var reg 7 a crc_in [6:0] $end
$var reg 1 b crc_ok $end
$var reg 1 D crc_ok_o $end
$var reg 1 c crc_rst $end
$var reg 1 C finish_o $end
$var reg 1 B index_ok_o $end
$var reg 7 d next_state [6:0] $end
$var reg 128 e resp_buff [127:0] $end
$var reg 120 f response_o [119:0] $end
$var reg 7 g state [6:0] $end
$var reg 1 h with_response $end
$var integer 32 i counter [31:0] $end
$var integer 32 j resp_idx [31:0] $end
$var integer 32 k resp_len [31:0] $end
$scope module CRC_7 $end
$var wire 1 L BITSTRB $end
$var wire 1 _ BITVAL $end
$var wire 1 c CLEAR $end
$var wire 1 ` ENABLE $end
$var wire 1 l inv $end
$var reg 7 m CRC [6:0] $end
$upscope $end
$scope begin COMMAND_DECODER $end
$upscope $end
$scope begin FSM_COMBO $end
$upscope $end
$scope begin FSM_OUT $end
$upscope $end
$scope begin FSM_SEQ $end
$upscope $end
$upscope $end
$scope module sd_cmd_master0 $end
$var wire 32 n argument_i [31:0] $end
$var wire 14 o command_i [13:0] $end
$var wire 1 D crc_ok_i $end
$var wire 1 C finish_i $end
$var wire 1 B index_ok_i $end
$var wire 1 G int_status_rst_i $end
$var wire 120 p response_i [119:0] $end
$var wire 1 K rst $end
$var wire 1 L sd_clk $end
$var wire 1 H start_i $end
$var wire 24 q timeout_i [23:0] $end
$var wire 2 r setting_o [1:0] $end
$var wire 5 s int_status_o [4:0] $end
$var wire 1 - busy_i $end
$var parameter 2 t BUSY_CHECK $end
$var parameter 2 u EXECUTE $end
$var parameter 2 v IDLE $end
$var parameter 32 w SIZE $end
$var reg 1 x busy_check $end
$var reg 40 y cmd_o [39:0] $end
$var reg 1 z crc_check $end
$var reg 1 { expect_response $end
$var reg 1 7 go_idle_o $end
$var reg 1 | index_check $end
$var reg 5 } int_status_reg [4:0] $end
$var reg 1 ~ long_response $end
$var reg 2 !" next_state [1:0] $end
$var reg 32 "" response_0_o [31:0] $end
$var reg 32 #" response_1_o [31:0] $end
$var reg 32 $" response_2_o [31:0] $end
$var reg 32 %" response_3_o [31:0] $end
$var reg 1 > start_xfr_o $end
$var reg 2 &" state [1:0] $end
$var reg 24 '" timeout_reg [23:0] $end
$var reg 24 (" watchdog [23:0] $end
$scope begin FSM_COMBO $end
$upscope $end
$scope begin FSM_SEQ $end
$upscope $end
$upscope $end
$scope module sd_data_master0 $end
$var wire 1 ! int_status_rst_i $end
$var wire 1 K rst $end
$var wire 1 % rx_fifo_full_i $end
$var wire 1 L sd_clk $end
$var wire 1 # start_rx_i $end
$var wire 1 $ start_tx_i $end
$var wire 24 )" timeout_i [23:0] $end
$var wire 1 ( tx_fifo_empty_i $end
$var wire 1 ) tx_fifo_full_i $end
$var wire 1 *" xfr_complete_i $end
$var wire 1 : crc_ok_i $end
$var parameter 3 +" DATA_TRANSFER $end
$var parameter 3 ," IDLE $end
$var parameter 32 -" SIZE $end
$var parameter 3 ." START_RX_FIFO $end
$var parameter 3 /" START_TX_FIFO $end
$var reg 1 = d_read_o $end
$var reg 1 < d_write_o $end
$var reg 5 0" int_status_o [4:0] $end
$var reg 3 1" next_state [2:0] $end
$var reg 1 , start_rx_fifo_o $end
$var reg 1 + start_tx_fifo_o $end
$var reg 3 2" state [2:0] $end
$var reg 24 3" timeout_reg [23:0] $end
$var reg 1 4" trans_done $end
$var reg 1 5" tx_cycle $end
$var reg 24 6" watchdog [23:0] $end
$scope begin FSM_COMBO $end
$upscope $end
$scope begin FSM_SEQ $end
$upscope $end
$upscope $end
$scope module sd_data_serial_host0 $end
$var wire 4 7" DAT_dat_i [3:0] $end
$var wire 16 8" blkcnt [15:0] $end
$var wire 12 9" blksize [11:0] $end
$var wire 1 :" bus_4bit $end
$var wire 2 ;" byte_alignment [1:0] $end
$var wire 32 <" data_in [31:0] $end
$var wire 1 K rst $end
$var wire 1 L sd_clk $end
$var wire 2 =" start [1:0] $end
$var wire 1 >" start_bit $end
$var wire 1 - sd_data_busy $end
$var wire 1 ; busy $end
$var parameter 6 ?" IDLE $end
$var parameter 6 @" READ_DAT $end
$var parameter 6 A" READ_WAIT $end
$var parameter 32 B" SIZE $end
$var parameter 6 C" WRITE_BUSY $end
$var parameter 6 D" WRITE_CRC $end
$var parameter 6 E" WRITE_DAT $end
$var reg 4 F" DAT_dat_o [3:0] $end
$var reg 4 G" DAT_dat_reg [3:0] $end
$var reg 1 / DAT_oe_o $end
$var reg 16 H" blkcnt_reg [15:0] $end
$var reg 12 I" blksize_reg [11:0] $end
$var reg 1 J" bus_4bit_reg $end
$var reg 1 K" busy_int $end
$var reg 2 L" byte_alignment_reg [1:0] $end
$var reg 5 M" crc_c [4:0] $end
$var reg 1 N" crc_en $end
$var reg 4 O" crc_in [3:0] $end
$var reg 1 : crc_ok $end
$var reg 1 P" crc_rst $end
$var reg 3 Q" crc_s [2:0] $end
$var reg 2 R" crc_status [1:0] $end
$var reg 15 S" data_cycles [14:0] $end
$var reg 5 T" data_index [4:0] $end
$var reg 32 U" data_out [31:0] $end
$var reg 4 V" last_din [3:0] $end
$var reg 1 W" next_block $end
$var reg 6 X" next_state [5:0] $end
$var reg 1 6 rd $end
$var reg 6 Y" state [5:0] $end
$var reg 16 Z" transf_cnt [15:0] $end
$var reg 1 * we $end
$scope begin CRC_16_gen[0] $end
$var parameter 2 [" i $end
$scope module CRC_16_i $end
$var wire 1 L BITSTRB $end
$var wire 1 \" BITVAL $end
$var wire 1 P" CLEAR $end
$var wire 1 N" ENABLE $end
$var wire 1 ]" inv $end
$var reg 16 ^" CRC [15:0] $end
$upscope $end
$upscope $end
$scope begin CRC_16_gen[1] $end
$var parameter 2 _" i $end
$scope module CRC_16_i $end
$var wire 1 L BITSTRB $end
$var wire 1 `" BITVAL $end
$var wire 1 P" CLEAR $end
$var wire 1 N" ENABLE $end
$var wire 1 a" inv $end
$var reg 16 b" CRC [15:0] $end
$upscope $end
$upscope $end
$scope begin CRC_16_gen[2] $end
$var parameter 3 c" i $end
$scope module CRC_16_i $end
$var wire 1 L BITSTRB $end
$var wire 1 d" BITVAL $end
$var wire 1 P" CLEAR $end
$var wire 1 N" ENABLE $end
$var wire 1 e" inv $end
$var reg 16 f" CRC [15:0] $end
$upscope $end
$upscope $end
$scope begin CRC_16_gen[3] $end
$var parameter 3 g" i $end
$scope module CRC_16_i $end
$var wire 1 L BITSTRB $end
$var wire 1 h" BITVAL $end
$var wire 1 P" CLEAR $end
$var wire 1 N" ENABLE $end
$var wire 1 i" inv $end
$var reg 16 j" CRC [15:0] $end
$upscope $end
$upscope $end
$scope begin FSM_COMBO $end
$upscope $end
$scope begin FSM_OUT $end
$upscope $end
$upscope $end
$scope module sd_fake0 $end
$var wire 16 k" rddata [15:0] $end
$var wire 1 l" rstn_async $end
$var wire 1 L sdclk $end
$var wire 1 ' sdcmd $end
$var wire 8 m" show_status_bits [7:0] $end
$var wire 4 n" sddat [3:0] $end
$var wire 1 o" request_stop $end
$var wire 4 p" request_pre_st [3:0] $end
$var wire 7 q" request_crc [6:0] $end
$var wire 6 r" request_cmd [5:0] $end
$var wire 32 s" request_arg [31:0] $end
$var wire 2 t" readquadidx [1:0] $end
$var wire 4 u" readbyteidx [3:0] $end
$var wire 32 v" read_byte_idx [31:0] $end
$var wire 16 w" rddata_reversed [15:0] $end
$var wire 16 x" cardstatus_short [15:0] $end
$var wire 32 y" cardstatus [31:0] $end
$var wire 512 z" SD_STAT [511:0] $end
$var wire 512 {" CMD6_RESP [511:0] $end
$var parameter 32 |" BLOCK_SIZE $end
$var parameter 120 }" CID_REG $end
$var parameter 120 ~" CSD_REG $end
$var parameter 4 !# DATA $end
$var parameter 34 "# DATASTARTLEN $end
$var parameter 33 ## DATAWAITLEN $end
$var parameter 4 $# DIS $end
$var parameter 32 %# HIGHZLEN $end
$var parameter 4 &# IDENT $end
$var parameter 4 '# IDLE $end
$var parameter 2 (# LOADRESP $end
$var parameter 32 )# OCR_REG $end
$var parameter 4 *# PRG $end
$var parameter 16 +# RCA_REG $end
$var parameter 4 ,# RCV $end
$var parameter 4 -# READY $end
$var parameter 2 .# RESPING $end
$var parameter 65 /# SCR_REG $end
$var parameter 4 0# STBY $end
$var parameter 4 1# TRAN $end
$var parameter 2 2# WAITINGCMD $end
$var parameter 33 3# WAITLEN $end
$var reg 120 4# arg [119:0] $end
$var reg 8 5# arglen [7:0] $end
$var reg 1 6# cardstatus_address_error $end
$var reg 1 7# cardstatus_ake_seq_error $end
$var reg 1 8# cardstatus_app_cmd $end
$var reg 1 9# cardstatus_block_len_error $end
$var reg 1 :# cardstatus_card_ecc_disabled $end
$var reg 1 ;# cardstatus_card_ecc_failed $end
$var reg 1 <# cardstatus_card_is_locked $end
$var reg 1 =# cardstatus_cc_error $end
$var reg 1 ># cardstatus_com_crc_error $end
$var reg 1 ?# cardstatus_csd_overwrite $end
$var reg 4 @# cardstatus_current_state [3:0] $end
$var reg 1 A# cardstatus_erase_param $end
$var reg 1 B# cardstatus_erase_reset $end
$var reg 1 C# cardstatus_erase_seq_error $end
$var reg 1 D# cardstatus_error $end
$var reg 1 E# cardstatus_illegal_command $end
$var reg 1 F# cardstatus_lock_unlock_failed $end
$var reg 1 G# cardstatus_out_of_range $end
$var reg 1 H# cardstatus_ready_for_data $end
$var reg 2 I# cardstatus_rsvd1 [1:0] $end
$var reg 2 J# cardstatus_rsvd2 [1:0] $end
$var reg 1 K# cardstatus_rsvd3 $end
$var reg 3 L# cardstatus_rsvd4 [2:0] $end
$var reg 1 M# cardstatus_wp_erase_skip $end
$var reg 1 N# cardstatus_wp_violation $end
$var reg 6 O# cmd [5:0] $end
$var reg 6 P# cmd6_invalid [5:0] $end
$var reg 7 Q# cmdcrcval [6:0] $end
$var reg 7 R# crc [6:0] $end
$var reg 1 S# dummycrc $end
$var reg 32 T# idx [31:0] $end
$var reg 1 U# last_is_acmd $end
$var reg 40 V# rdaddr [39:0] $end
$var reg 1 W# rdreq $end
$var reg 1 X# read_cmd6stat $end
$var reg 1 Y# read_continue $end
$var reg 16 Z# read_crc [15:0] $end
$var reg 32 [# read_idx [31:0] $end
$var reg 1 \# read_scr $end
$var reg 1 ]# read_sdstat $end
$var reg 1 ^# read_task $end
$var reg 50 _# request [49:0] $end
$var reg 1 `# response_end $end
$var reg 2 a# respstate [1:0] $end
$var reg 1 b# rstn_sdclk_n $end
$var reg 2 c# rstn_sdclk_n_l [1:0] $end
$var reg 1 d# rstn_sdclk_p $end
$var reg 2 e# rstn_sdclk_p_l [1:0] $end
$var reg 1 f# sdcmdoe $end
$var reg 1 g# sdcmdout $end
$var reg 1 h# sddatoe $end
$var reg 4 i# sddatout [3:0] $end
$var reg 32 j# show_sdcmd_arg [31:0] $end
$var reg 6 k# show_sdcmd_cmd [5:0] $end
$var reg 1 l# show_sdcmd_en $end
$var reg 1 m# valid $end
$var reg 1 n# widebus $end
$var integer 32 o# i [31:0] $end
$scope function CalcCrcCMD $end
$var reg 7 p# crc [6:0] $end
$var reg 1 q# inbit $end
$upscope $end
$scope function CalcCrcDAT $end
$var reg 16 r# crc [15:0] $end
$var reg 1 s# inbit $end
$upscope $end
$scope task data_response_cmd6stat_init $end
$upscope $end
$scope task data_response_init $end
$var reg 1 t# _read_continue $end
$var reg 32 u# _read_sector_no [31:0] $end
$upscope $end
$scope task data_response_scr_init $end
$upscope $end
$scope task data_response_sdstat_init $end
$upscope $end
$scope task data_response_stop $end
$upscope $end
$scope task data_response_yield $end
$upscope $end
$scope task response_init $end
$var reg 120 v# _arg [119:0] $end
$var reg 8 w# _arglen [7:0] $end
$var reg 6 x# _cmd [5:0] $end
$var reg 1 y# _dummycrc $end
$var reg 1 z# _valid $end
$upscope $end
$scope task response_yield $end
$upscope $end
$upscope $end
$upscope $end
$enddefinitions $end
$comment Show the parameter values. $end
$dumpall
b100 3#
b0 2#
b100 1#
b11 0#
b101000000000000000000000000000000000000000000000000 /#
b10 .#
b1 -#
b110 ,#
b10011 +#
b111 *#
b11000000111111111000000000000000 )#
b1 (#
b0 '#
b10 &#
b1 %#
b1000 $#
b10001 ##
b10010 "#
b101 !#
b10000000000111000000000001100100101000001011001000000000000000000111001101101110011111110000000000000000000000000110000 ~"
b100101010001001101010100110100000100110000001110000100011100010100001110010100101001100111110001110000000011100100 }"
b1000000000 |"
b11 g"
b10 c"
b1 _"
b0 ["
b10 E"
b100 D"
b1000 C"
b110 B"
b10000 A"
b100000 @"
b1 ?"
b1 /"
b10 ."
b11 -"
b0 ,"
b100 +"
b10 w
b0 v
b1 u
b10 t
b100 \
b111 [
b10 Z
b10000000 Y
b1000 X
b10000 W
b100 V
b0 U
b1 T
b100000 S
b1000000 R
b101000 Q
b110000 P
$end
#0
$dumpvars
0z#
0y#
b0 x#
b0 w#
b0 v#
bx u#
xt#
xs#
bx r#
1q#
b1010100 p#
b100 o#
0n#
0m#
0l#
b0 k#
b0 j#
b1111 i#
0h#
1g#
0f#
b0 e#
0d#
b1 c#
0b#
b0 a#
1`#
b11111111111111111111111111111111111111111111111111 _#
0^#
0]#
0\#
b0 [#
b0 Z#
0Y#
0X#
0W#
b0 V#
0U#
b0 T#
0S#
b0 R#
b101000 Q#
b0 P#
b0 O#
0N#
0M#
b0 L#
0K#
b0 J#
b0 I#
0H#
0G#
0F#
0E#
0D#
0C#
0B#
0A#
b0 @#
0?#
0>#
0=#
0<#
0;#
0:#
09#
08#
07#
06#
b0 5#
b0 4#
b10001000000000000001100000000000000110000000000000011000000000000001100000000000000110000000000000010000000000000000000000000000000000000000000000000000000000000000000000000000000000000000000000000000000000000000000000000000000000000000000000000000000000000000000000000000000000000000000000000000000000000000000000000000000000000000000000000000000000000000000000000000000000000000000000000000000000000000000000000000000000000000000000000000000000000000000000000000000000000000000000000000000000000000 {"
b1000000000000000000000000000000000000001011111111100100000000000000000000000000000000000000000000000000000000000000000000000000000000000000000000000000000000000000000000000000000000000000000000000000000000000000000000000000000000000000000000000000000000000000000000000000000000000000000000000000000000000000000000000000000000000000000000000000000000000000000000000000000000000000000000000000000000000000000000000000000000000000000000000000000000000000000000000000000000000000000000 z"
b0 y"
b0 x"
bz w"
b11111111111111111111111111101110 v"
b1 u"
b1 t"
b11111111111111111111111111111111 s"
b111111 r"
b1111111 q"
b1111 p"
1o"
bz n"
b10000000 m"
1l"
bz k"
bx j"
xi"
xh"
bx f"
xe"
xd"
bx b"
xa"
x`"
bx ^"
x]"
x\"
bx Z"
bx Y"
bx X"
xW"
bx V"
bx U"
bx T"
bx S"
bx R"
bx Q"
xP"
bx O"
xN"
bx M"
bx L"
xK"
xJ"
bx I"
bx H"
bx G"
bx F"
x>"
bx ="
bz <"
b0z ;"
z:"
b0z 9"
b0z 8"
b0z 7"
bx 6"
x5"
x4"
bx 3"
bx 2"
b0 1"
bx 0"
x*"
b0z )"
bx ("
bx '"
bx &"
bx %"
bx $"
bx #"
bx ""
b0 !"
x~
bx }
x|
x{
xz
bx y
xx
bx s
bx r
b0 q
bx p
b0 o
b0 n
bx m
xl
bx k
bx j
bx i
xh
bx g
bx f
bx e
bx d
xc
xb
bx a
x`
x_
x^
bx ]
bx O
bx N
bx M
0L
0K
b0 J
b0 I
0H
0G
b0 F
bx E
xD
xC
xB
xA
bx @
bx ?
x>
x=
x<
x;
x:
bx 9
x8
x7
x6
x5
x4
x3
x2
x1
x0
x/
x.
x-
x,
x+
x*
z)
z(
x'
z&
z%
z$
z#
bz "
z!
$end
#1
b0 d
b1 e#
z^
b0z G"
b0 2"
b0 &"
1L
#2
b11 c#
0h#
b100 o#
b10000000 m"
1`#
0L
#3
b1 X"
b11 e#
b0 g
b0 6"
b0z 3"
05"
04"
0=
b0 ="
0<
0,
0+
b0 ("
b0 '"
b100000000000000000000000000000000000000 E
b100000000000000000000000000000000000000 O
b100000000000000000000000000000000000000 y
0~
b0 ?
b0 M
b0 r
0{
0x
0z
0|
07
1L
#4
1b#
0h#
b100 o#
b10000000 m"
1`#
0L
#5
1d#
1*"
0;
b1 Y"
1'
10
11
1L
#6
0h#
b10000000 m"
1`#
0L
#7
b0 ^"
b0 b"
b0 f"
b0 j"
1.
zJ"
b0z I"
b0z L"
b0z H"
0W"
b0 T"
06
0*
b0 Q"
b0 R"
b10000 M"
b0 Z"
1P"
0N"
b1111 F"
0/
1L
#8
0h#
b10000000 m"
1`#
0L
#9
1L
#10
0l
b0 N
b0 m
0]"
0a"
0e"
0i"
0A
b100 o#
0.
0\"
0`"
0d"
0h"
08
b0 s
02
03
04
05
0d#
b0 e#
0b#
b0 c#
0J"
b0 S"
b0 L"
b0 I"
b0 H"
0K"
0:
b0 9
b0 U"
b0 F"
b0 O"
b0 V"
b0 M"
b0 i
0b
0D
0B
b0 @
b0 f
b0 p
b0 a
0_
1c
0C
b0 e
b0 j
0`
b0 ]
0h
b0 k
b0 3"
b0 0"
0>
b0 E
b0 O
b0 y
b0 }
b0 %"
b0 $"
b0 #"
b0 ""
0h#
b10000000 m"
1`#
0l"
0L
1K
#11
b0 M"
1L
#12
0h#
b100 o#
b10000000 m"
1`#
0L
#13
b0 M"
1L
#14
0h#
b100 o#
b10000000 m"
1`#
0L
#15
b0 M"
1L
#16
0h#
b100 o#
b10000000 m"
1`#
0L
#17
b0 M"
1L
#18
0h#
b100 o#
b10000000 m"
1`#
0L
#19
b0 M"
1L
#20
b1 c#
0h#
b100 o#
b10000000 m"
1`#
1l"
0L
0K
#21
1.
b1 e#
zJ"
bx S"
b0z I"
b0z L"
b0z H"
b10000 M"
b1111 F"
b1 i
b0z 3"
b100000000000000000000000000000000000000 E
b100000000000000000000000000000000000000 O
b100000000000000000000000000000000000000 y
1L
#22
b11 c#
0h#
b100 o#
b10000000 m"
1`#
0L
#23
b11 e#
b10 i
1L
#24
1b#
0h#
b100 o#
b10000000 m"
1`#
0L
#25
1d#
b11 i
1L
#26
0h#
b10000000 m"
1`#
0L
#27
b1 d
b100 i
1L
#28
0h#
b10000000 m"
1`#
0L
#29
b101 i
b1 g
1L
#30
0h#
b10000000 m"
1`#
b1 !"
0L
1H
#31
b10 d
b0 i
01
b1 &"
1>
1L
#32
0h#
b10000000 m"
1`#
0L
0H
#33
b100 d
b10 g
b100000000000000000000000000000000000000 ]
b100111 k
b1 ("
0>
1L
#34
0h#
b10000000 m"
1`#
0L
#35
1`
0c
b100 g
b10 ("
1L
#36
0h#
b10000000 m"
1`#
0L
#37
1l
b1 i
1_
0'
00
11
b11 ("
1L
#38
0h#
b10000000 m"
1`#
0L
#39
b1010100 p#
b0 o#
b101000 Q#
0o"
0l
b1001 N
b1001 m
b11111111111111111111111111111111111111111111111110 _#
b10 i
0_
1'
10
b100 ("
1L
#40
0h#
b10000000 m"
1`#
0L
#41
0q#
b1010100 p#
b0 o#
b100001 Q#
b1111110 q"
1o"
b10010 N
b10010 m
b11111111111111111111111111111111111111111111111101 _#
b11 i
0'
00
b101 ("
1L
#42
0h#
b10000000 m"
1`#
0L
#43
b1011101 p#
1q#
b0 o#
b111010 Q#
b1111101 q"
0o"
b100100 N
b100100 m
b11111111111111111111111111111111111111111111111010 _#
b100 i
b110 ("
1L
#44
0h#
b10000000 m"
1`#
0L
#45
1l
0q#
b1000110 p#
b0 o#
b101 Q#
b1111010 q"
b1001000 N
b1001000 m
b11111111111111111111111111111111111111111111110100 _#
b101 i
b111 ("
1L
#46
0h#
b10000000 m"
1`#
0L
#47
0l
b1111001 p#
0q#
b0 o#
b1111011 Q#
b1110100 q"
b11001 N
b11001 m
b11111111111111111111111111111111111111111111101000 _#
b110 i
b1000 ("
1L
#48
0h#
b10000000 m"
1`#
0L
#49
b111 p#
0q#
b0 o#
b1110 Q#
b1101000 q"
b110010 N
b110010 m
b11111111111111111111111111111111111111111111010000 _#
b111 i
b1001 ("
1L
#50
0h#
b10000000 m"
1`#
0L
#51
1l
b1110010 p#
0q#
b0 o#
b1101101 Q#
b1010000 q"
b1100100 N
b1100100 m
b11111111111111111111111111111111111111111110100000 _#
b1000 i
b1010 ("
1L
#52
0h#
b10000000 m"
1`#
0L
#53
b10001 p#
0q#
b0 o#
b100010 Q#
b100000 q"
b1000001 N
b1000001 m
b11111111111111111111111111111111111111111101000000 _#
b1001 i
b1011 ("
1L
#54
0h#
b10000000 m"
1`#
0L
#55
0l
b1011110 p#
0q#
b0 o#
b110101 Q#
b11111111111111111111111111111110 s"
b1000000 q"
b1011 N
b1011 m
b11111111111111111111111111111111111111111010000000 _#
b1010 i
b1100 ("
1L
#56
0h#
b10000000 m"
1`#
0L
#57
b1001001 p#
0q#
b0 o#
b11011 Q#
b11111111111111111111111111111101 s"
b0 q"
b10110 N
b10110 m
b11111111111111111111111111111111111111110100000000 _#
b1011 i
b1101 ("
1L
#58
0h#
b10000000 m"
1`#
0L
#59
b1100111 p#
0q#
b0 o#
b1000111 Q#
b11111111111111111111111111111010 s"
b101100 N
b101100 m
b11111111111111111111111111111111111111101000000000 _#
b1100 i
b1110 ("
1L
#60
0h#
b10000000 m"
1`#
0L
#61
1l
b111011 p#
0q#
b0 o#
b1110110 Q#
b11111111111111111111111111110100 s"
b1011000 N
b1011000 m
b11111111111111111111111111111111111111010000000000 _#
b1101 i
b1111 ("
1L
#62
0h#
b10000000 m"
1`#
0L
#63
0l
b1010 p#
0q#
b0 o#
b10100 Q#
b11111111111111111111111111101000 s"
b111001 N
b111001 m
b11111111111111111111111111111111111110100000000000 _#
b1110 i
b10000 ("
1L
#64
0h#
b10000000 m"
1`#
0L
#65
1l
b1101000 p#
0q#
b0 o#
b1011001 Q#
b11111111111111111111111111010000 s"
b1110010 N
b1110010 m
b11111111111111111111111111111111111101000000000000 _#
b1111 i
b10001 ("
1L
#66
0h#
b10000000 m"
1`#
0L
#67
b100101 p#
0q#
b0 o#
b1001010 Q#
b11111111111111111111111110100000 s"
b1101101 N
b1101101 m
b11111111111111111111111111111111111010000000000000 _#
b10000 i
b10010 ("
1L
#68
0h#
b10000000 m"
1`#
0L
#69
b110110 p#
0q#
b0 o#
b1101100 Q#
b11111111111111111111111101000000 s"
b1010011 N
b1010011 m
b11111111111111111111111111111111110100000000000000 _#
b10001 i
b10011 ("
1L
#70
0h#
b10000000 m"
1`#
0L
#71
0l
b10000 p#
0q#
b0 o#
b100000 Q#
b11111111111111111111111010000000 s"
b101111 N
b101111 m
b11111111111111111111111111111111101000000000000000 _#
b10010 i
b10100 ("
1L
#72
0h#
b10000000 m"
1`#
0L
#73
1l
b1011100 p#
0q#
b0 o#
b110001 Q#
b11111111111111111111110100000000 s"
b1011110 N
b1011110 m
b11111111111111111111111111111111010000000000000000 _#
b10011 i
b10101 ("
1L
#74
0h#
b10000000 m"
1`#
0L
#75
0l
b1001101 p#
0q#
b0 o#
b10011 Q#
b11111111111111111111101000000000 s"
b110101 N
b110101 m
b11111111111111111111111111111110100000000000000000 _#
b10100 i
b10110 ("
1L
#76
0h#
b10000000 m"
1`#
0L
#77
1l
b1101111 p#
0q#
b0 o#
b1010111 Q#
b11111111111111111111010000000000 s"
b1101010 N
b1101010 m
b11111111111111111111111111111101000000000000000000 _#
b10101 i
b10111 ("
1L
#78
0h#
b10000000 m"
1`#
0L
#79
b101011 p#
0q#
b0 o#
b1010110 Q#
b11111111111111111110100000000000 s"
b1011101 N
b1011101 m
b11111111111111111111111111111010000000000000000000 _#
b10110 i
b11000 ("
1L
#80
0h#
b10000000 m"
1`#
0L
#81
0l
b101010 p#
0q#
b0 o#
b1010100 Q#
b11111111111111111101000000000000 s"
b110011 N
b110011 m
b11111111111111111111111111110100000000000000000000 _#
b10111 i
b11001 ("
1L
#82
0h#
b10000000 m"
1`#
0L
#83
1l
b101000 p#
0q#
b0 o#
b1010000 Q#
b11111111111111111010000000000000 s"
b1100110 N
b1100110 m
b11111111111111111111111111101000000000000000000000 _#
b11000 i
b11010 ("
1L
#84
0h#
b10000000 m"
1`#
0L
#85
b101100 p#
0q#
b0 o#
b1011000 Q#
b11111111111111110100000000000000 s"
b1000101 N
b1000101 m
b11111111111111111111111111010000000000000000000000 _#
b11001 i
b11011 ("
1L
#86
0h#
b10000000 m"
1`#
0L
#87
0l
b100100 p#
0q#
b0 o#
b1001000 Q#
b11111111111111101000000000000000 s"
b11 N
b11 m
b11111111111111111111111110100000000000000000000000 _#
b11010 i
b11100 ("
1L
#88
0h#
b10000000 m"
1`#
0L
#89
b110100 p#
0q#
b0 o#
b1101000 Q#
b11111111111111010000000000000000 s"
b110 N
b110 m
b11111111111111111111111101000000000000000000000000 _#
b11011 i
b11101 ("
1L
#90
0h#
b10000000 m"
1`#
0L
#91
b10100 p#
0q#
b0 o#
b101000 Q#
b11111111111110100000000000000000 s"
b1100 N
b1100 m
b11111111111111111111111010000000000000000000000000 _#
b11100 i
b11110 ("
1L
#92
0h#
b10000000 m"
1`#
0L
#93
b1010100 p#
0q#
b0 o#
b100001 Q#
b11111111111101000000000000000000 s"
b11000 N
b11000 m
b11111111111111111111110100000000000000000000000000 _#
b11101 i
b11111 ("
1L
#94
0h#
b10000000 m"
1`#
0L
#95
b1011101 p#
0q#
b0 o#
b110011 Q#
b11111111111010000000000000000000 s"
b110000 N
b110000 m
b11111111111111111111101000000000000000000000000000 _#
b11110 i
b100000 ("
1L
#96
0h#
b10000000 m"
1`#
0L
#97
1l
b1001111 p#
0q#
b0 o#
b10111 Q#
b11111111110100000000000000000000 s"
b1100000 N
b1100000 m
b11111111111111111111010000000000000000000000000000 _#
b11111 i
b100001 ("
1L
#98
0h#
b10000000 m"
1`#
0L
#99
b1101011 p#
0q#
b0 o#
b1011111 Q#
b11111111101000000000000000000000 s"
b1001001 N
b1001001 m
b11111111111111111110100000000000000000000000000000 _#
b100000 i
b100010 ("
1L
#100
0h#
b10000000 m"
1`#
0L
#101
0l
b100011 p#
0q#
b0 o#
b1000110 Q#
b11111111010000000000000000000000 s"
b11011 N
b11011 m
b11111111111111111101000000000000000000000000000000 _#
b100001 i
b100011 ("
1L
#102
0h#
b10000000 m"
1`#
0L
#103
b111010 p#
0q#
b0 o#
b1110100 Q#
b11111110100000000000000000000000 s"
b110110 N
b110110 m
b11111111111111111010000000000000000000000000000000 _#
b100010 i
b100100 ("
1L
#104
0h#
b10000000 m"
1`#
0L
#105
1l
b1000 p#
0q#
b0 o#
b10000 Q#
b11111101000000000000000000000000 s"
b1101100 N
b1101100 m
b11111111111111110100000000000000000000000000000000 _#
b100011 i
b100101 ("
1L
#106
0h#
b10000000 m"
1`#
0L
#107
b1101100 p#
0q#
b0 o#
b1010001 Q#
b11111010000000000000000000000000 s"
b1010001 N
b1010001 m
b11111111111111101000000000000000000000000000000000 _#
b100100 i
b100110 ("
1L
#108
0h#
b10000000 m"
1`#
0L
